…
<!-- for some reason, this won't knit, but runs interactively -->
```{r eval=FALSE}
fork <- makeForkCluster(detectCores())
set_default_cluster(fork)

flights %>% 
  partition(dest) %>% 
  summarize(est_travel_time=cheating(air_time)) %>% 
  collect() %>% 
  arrange(est_travel_time)

stopCluster(fork)
```
```
# A tibble: 105 x 2
    dest est_travel_time
   <chr>           <dbl>
 1   BDL        25.46602
 2   ALB        31.78708
 3   PVD        32.66760
 4   PHL        33.17132
 5   MVY        36.31905
 6   BWI        38.49970
 7   MHT        38.50858
 8   BOS        38.95300
 9   ACK        42.06818
10   SYR        43.03984
# ... with 95 more rows
```
…
