Data analysis with dplyr — HPC R
…
If we ever get annoyed with a tbl_df, we can turn it back into a dataframe with as.data.frame().

class(as.data.frame(flights))

## [1] "data.frame"

The flights table clocks in at several hundred thousand rows. That’s a fair sized chunk of data. Nevertheless, our tricks from before work just the same.

Using the same technique from before, let’s retrieve all of the flights that went to Los Angeles (LAX).

rows_with_yvr <- flights$dest == "LAX"
flights[rows_with_yvr, ]

## # A tibble: 16,174 x 19
##     year month   day dep_time sched_dep_time dep_delay arr_time
##    <int> <int> <int>    <int>          <int>     <dbl>    <int>
##  1  2013     1     1      558            600        -2      924
##  2  2013     1     1      628            630        -2     1016
##  3  2013     1     1      658            700        -2     1027
##  4  2013     1     1      702            700         2     1058
##  5  2013     1     1      743            730        13     1107
##  6  2013     1     1      828            823         5     1150
##  7  2013     1     1      829            830        -1     1152
##  8  2013     1     1      856            900        -4     1226
##  9  2013     1     1      859            900        -1     1223
## 10  2013     1     1      921            900        21     1237
## # ... with 16,164 more rows, and 12 more variables: sched_arr_time <int>,
## #   arr_delay <dbl>, carrier <chr>, flight <int>, tailnum <chr>,
## #   origin <chr>, dest <chr>, air_time <dbl>, distance <dbl>, hour <dbl>,
## #   minute <dbl>, time_hour <dttm>
…
## [1] TRUE

TRUE & FALSE

## [1] FALSE

TRUE | FALSE

## [1] TRUE

Using this in an example with filter() to fetch all the flights to LAX in February:

filter(flights, dest == "LAX" & month == 2)

## # A tibble: 1,030 x 19
##     year month   day dep_time sched_dep_time dep_delay arr_time
##    <int> <int> <int>    <int>          <int>     <dbl>    <int>
##  1  2013     2     1      554            601        -7      920
##  2  2013     2     1      654            700        -6     1032
##  3  2013     2     1      657            705        -8     1027
##  4  2013     2     1      658            700        -2     1018
##  5  2013     2     1      722            705        17     1040
##  6  2013     2     1      807            730        37     1134
##  7  2013     2     1      826            830        -4     1206
##  8  2013     2     1      857            900        -3     1225
##  9  2013     2     1      859            900        -1     1251
## 10  2013     2     1      901            905        -4     1230
## # ... with 1,020 more rows, and 12 more variables: sched_arr_time <int>,
## #   arr_delay <dbl>, carrier <chr>, flight <int>, tailnum <chr>,
## #   origin <chr>, dest <chr>, air_time <dbl>, distance <dbl>, hour <dbl>,
## #   minute <dbl>, time_hour <dttm>
…
Our analysis now flows from left to right, instead of inside out. Makes things quite a bit more readable. Many people also put each step on a new line. That way if you want to exclude a step, you can just comment it out.

flights %>%
    filter(dest == "LAX") %>%
    nrow()

## [1] 16174

Controlling output

dplyr also has its own function for selecting columns: select(). To grab the certain columns from a dataframe, we supply their names to select() as arguments.

flights %>% select(flight, dest, air_time)

## # A tibble: 336,776 x 3
##    flight  dest air_time
##     <int> <chr>    <dbl>
##  1   1545   IAH      227
##  2   1714   IAH      227
##  3   1141   MIA      160
##  4    725   BQN      183
##  5    461   ATL      116
##  6   1696   ORD      150
##  7    507   FLL      158
##  8   5708   IAD       53
##  9     79   MCO      140
## 10    301   ORD      138
## # ... with 336,766 more rows

We can also sort columns using arrange(). arrange() sorts a dataset by whatever column names you specify.

flights %>% arrange(sched_dep_time)

## # A tibble: 336,776 x 19
##     year month   day dep_time sched_dep_time dep_delay arr_time
##    <int> <int> <int>    <int>          <int>     <dbl>    <int>
##  1  2013     7    27       NA            106        NA       NA
##  2  2013     1     2      458            500        -2      703
##  3  2013     1     3      458            500        -2      650
##  4  2013     1     4      456            500        -4      631
##  5  2013     1     5      458            500        -2      640
##  6  2013     1     6      458            500        -2      718
##  7  2013     1     7      454            500        -6      637
##  8  2013     1     8      454            500        -6      625
##  9  2013     1     9      457            500        -3      647
## 10  2013     1    10      450            500       -10      634
## # ... with 336,766 more rows, and 12 more variables: sched_arr_time <int>,
## #   arr_delay <dbl>, carrier <chr>, flight <int>, tailnum <chr>,
## #   origin <chr>, dest <chr>, air_time <dbl>, distance <dbl>, hour <dbl>,
## #   minute <dbl>, time_hour <dttm>

To sort in descending order, we can add the desc() function into the mix.

flights %>% arrange(desc(sched_dep_time))

## # A tibble: 336,776 x 19
##     year month   day dep_time sched_dep_time dep_delay arr_time
##    <int> <int> <int>    <int>          <int>     <dbl>    <int>
##  1  2013     1     1     2353           2359        -6      425
##  2  2013     1     1     2353           2359        -6      418
##  3  2013     1     1     2356           2359        -3      425
##  4  2013     1     2       42           2359        43      518
##  5  2013     1     2     2351           2359        -8      427
##  6  2013     1     2     2354           2359        -5      413
##  7  2013     1     3       32           2359        33      504
##  8  2013     1     3      235           2359       156      700
##  9  2013     1     3     2349           2359       -10      434
## 10  2013     1     4       25           2359        26      505
## # ... with 336,766 more rows, and 12 more variables: sched_arr_time <int>,
## #   arr_delay <dbl>, carrier <chr>, flight <int>, tailnum <chr>,
## #   origin <chr>, dest <chr>, air_time <dbl>, distance <dbl>, hour <dbl>,
## #   minute <dbl>, time_hour <dttm>
…
