Running code in parallel — HPC R
…
## Initialising 7 core cluster.

## Warning: group_indices_.grouped_df ignores extra arguments

Examining the workflow, we first partition our data across our workers (in this case R decided that we only needed 7 for whatever reason). The partition() function creates a party_df, a dataframe that has been partitioned into 7 shards partitioned across our 7 worker processes. partition() serves more or less the same function as group_by(), and ensures that all observations for a particular group are assigned to the same worker. collect() then collects the data from the parallel workers, after which they shut down.

flights %>% partition(dest)

## Warning: group_indices_.grouped_df ignores extra arguments

## Source: party_df [336,776 x 19]
## Groups: dest
## Shards: 7 [38,154--54,316 rows]
## 
## # S3: party_df
##     year month   day dep_time sched_dep_time dep_delay arr_time
##    <int> <int> <int>    <int>          <int>     <dbl>    <int>
##  1  2013     1     1      558            600        -2      849
##  2  2013     1     1      559            559         0      702
##  3  2013     1     1      601            600         1      844
##  4  2013     1     1      629            630        -1      824
##  5  2013     1     1      639            640        -1      739
##  6  2013     1     1      643            646        -3      922
##  7  2013     1     1      643            645        -2      837
##  8  2013     1     1      653            700        -7      936
##  9  2013     1     1      723            725        -2     1013
## 10  2013     1     1      752            759        -7      955
## # ... with 336,766 more rows, and 12 more variables: sched_arr_time <int>,
## #   arr_delay <dbl>, carrier <chr>, flight <int>, tailnum <chr>,
## #   origin <chr>, dest <chr>, air_time <dbl>, distance <dbl>, hour <dbl>,
## #   minute <dbl>, time_hour <dttm>
…
